{
    "accessors" : [
        {
            "bufferView" : 0,
            "componentType" : 5126,
            "count" : 123,
            "max" : [
                3.6820199489593506,
                28.905920028686523,
                3.265399932861328
            ],
            "min" : [
                -3.711940050125122,
                23.85066032409668,
                0.6864799857139587
            ],
            "type" : "VEC3"
        },
        {
            "bufferView" : 1,
            "componentType" : 5126,
            "count" : 123,
            "type" : "VEC3"
        },
        {
            "bufferView" : 2,
            "componentType" : 5126,
            "count" : 123,
            "type" : "VEC2"
        },
        {
            "bufferView" : 3,
            "componentType" : 5126,
            "count" : 123,
            "type" : "VEC4"
        },
        {
            "bufferView" : 4,
            "componentType" : 5123,
            "count" : 654,
            "type" : "SCALAR"
        },
        {
            "bufferView" : 5,
            "componentType" : 5126,
            "count" : 7955,
            "max" : [
                10.341970443725586,
                29.426570892333984,
                2.947809934616089
            ],
            "min" : [
                -10.391400337219238,
                -0.37411001324653625,
                -2.3037900924682617
            ],
            "type" : "VEC3"
        },
        {
            "bufferView" : 6,
            "componentType" : 5126,
            "count" : 7955,
            "type" : "VEC3"
        },
        {
            "bufferView" : 7,
            "componentType" : 5126,
            "count" : 7955,
            "type" : "VEC2"
        },
        {
            "bufferView" : 8,
            "componentType" : 5126,
            "count" : 7955,
            "type" : "VEC4"
        },
        {
            "bufferView" : 9,
            "componentType" : 5123,
            "count" : 32139,
            "type" : "SCALAR"
        },
        {
            "bufferView" : 10,
            "componentType" : 5126,
            "count" : 672,
            "max" : [
                2.057460069656372,
                9.57112979888916,
                2.3788700103759766
            ],
            "min" : [
                -2.5208399295806885,
                0.10898999869823456,
                -2.2401599884033203
            ],
            "type" : "VEC3"
        },
        {
            "bufferView" : 11,
            "componentType" : 5126,
            "count" : 672,
            "type" : "VEC3"
        },
        {
            "bufferView" : 12,
            "componentType" : 5126,
            "count" : 672,
            "type" : "VEC2"
        },
        {
            "bufferView" : 13,
            "componentType" : 5126,
            "count" : 672,
            "type" : "VEC2"
        },
        {
            "bufferView" : 14,
            "componentType" : 5123,
            "count" : 1008,
            "type" : "SCALAR"
        },
        {
            "bufferView" : 15,
            "componentType" : 5126,
            "count" : 1,
            "max" : [
                0.04166999955972036
            ],
            "min" : [
                0.04166999955972036
            ],
            "type" : "SCALAR"
        },
        {
            "bufferView" : 16,
            "componentType" : 5126,
            "count" : 1,
            "type" : "VEC4"
        },
        {
            "bufferView" : 17,
            "componentType" : 5126,
            "count" : 19,
            "max" : [
                0.791670004526774
            ],
            "min" : [
                0.04166999955972036
            ],
            "type" : "SCALAR"
        },
        {
            "bufferView" : 18,
            "componentType" : 5126,
            "count" : 19,
            "type" : "VEC3"
        }
    ],
    "animations" : [
        {
            "channels" : [
                {
                    "sampler" : 0,
                    "target" : {
                        "node" : 5,
                        "path" : "rotation"
                    }
                },
                {
                    "sampler" : 1,
                    "target" : {
                        "node" : 5,
                        "path" : "scale"
                    }
                }
            ],
            "name" : "Plane.005Action_Plane.005",
            "samplers" : [
                {
                    "input" : 15,
                    "interpolation" : "STEP",
                    "output" : 16
                },
                {
                    "input" : 17,
                    "interpolation" : "LINEAR",
                    "output" : 18
                }
            ]
        }
    ],
    "asset" : {
        "generator" : "Khronos Blender glTF 2.0 I/O",
        "version" : "2.0"
    },
    "bufferViews" : [
        {
            "buffer" : 0,
            "byteLength" : 1476,
            "byteOffset" : 0
        },
        {
            "buffer" : 0,
            "byteLength" : 1476,
            "byteOffset" : 1476
        },
        {
            "buffer" : 0,
            "byteLength" : 984,
            "byteOffset" : 2952
        },
        {
            "buffer" : 0,
            "byteLength" : 1968,
            "byteOffset" : 3936
        },
        {
            "buffer" : 0,
            "byteLength" : 1308,
            "byteOffset" : 5904
        },
        {
            "buffer" : 0,
            "byteLength" : 95460,
            "byteOffset" : 7212
        },
        {
            "buffer" : 0,
            "byteLength" : 95460,
            "byteOffset" : 102672
        },
        {
            "buffer" : 0,
            "byteLength" : 63640,
            "byteOffset" : 198132
        },
        {
            "buffer" : 0,
            "byteLength" : 127280,
            "byteOffset" : 261772
        },
        {
            "buffer" : 0,
            "byteLength" : 64278,
            "byteOffset" : 389052
        },
        {
            "buffer" : 0,
            "byteLength" : 8064,
            "byteOffset" : 453332
        },
        {
            "buffer" : 0,
            "byteLength" : 8064,
            "byteOffset" : 461396
        },
        {
            "buffer" : 0,
            "byteLength" : 5376,
            "byteOffset" : 469460
        },
        {
            "buffer" : 0,
            "byteLength" : 5376,
            "byteOffset" : 474836
        },
        {
            "buffer" : 0,
            "byteLength" : 2016,
            "byteOffset" : 480212
        },
        {
            "buffer" : 0,
            "byteLength" : 4,
            "byteOffset" : 482228
        },
        {
            "buffer" : 0,
            "byteLength" : 16,
            "byteOffset" : 482232
        },
        {
            "buffer" : 0,
            "byteLength" : 76,
            "byteOffset" : 482248
        },
        {
            "buffer" : 0,
            "byteLength" : 228,
            "byteOffset" : 482324
        }
    ],
    "buffers" : [
        {
            "byteLength" : 482552,
            "uri" : "devil.bin"
        }
    ],
    "extensions" : {},
    "images" : [
        {
            "mimeType" : "image/png",
            "name" : "Material.007_baseColor.png",
            "uri" : "textures/devil/Material.007_baseColor.png"
        },
        {
            "mimeType" : "image/png",
            "name" : "Material_baseColor.png",
            "uri" : "textures/devil/Material_baseColor.png"
        },
        {
            "mimeType" : "image/png",
            "name" : "Material.003_baseColor.png",
            "uri" : "textures/devil/Material.003_baseColor.png"
        }
    ],
    "materials" : [
        {
            "name" : "Material.007_COLOR_0",
            "pbrMetallicRoughness" : {
                "baseColorTexture" : {
                    "index" : 0,
                    "texCoord" : 0
                },
                "metallicFactor" : 0,
                "roughnessFactor" : 1
            }
        },
        {
            "name" : "Material_COLOR_0",
            "pbrMetallicRoughness" : {
                "baseColorTexture" : {
                    "index" : 1,
                    "texCoord" : 0
                },
                "metallicFactor" : 0,
                "roughnessFactor" : 1
            }
        },
        {
            "name" : "Material.003",
            "pbrMetallicRoughness" : {
                "baseColorFactor" : [
                    1,
                    1,
                    1,
                    0.41025152802467346
                ],
                "baseColorTexture" : {
                    "index" : 2,
                    "texCoord" : 0
                },
                "metallicFactor" : 0,
                "roughnessFactor" : 1
            }
        }
    ],
    "meshes" : [
        {
            "name" : "Plane.000_0",
            "primitives" : [
                {
                    "attributes" : {
                        "COLOR_0" : 3,
                        "NORMAL" : 1,
                        "POSITION" : 0,
                        "TEXCOORD_0" : 2
                    },
                    "indices" : 4,
                    "material" : 0
                }
            ]
        },
        {
            "name" : "Plane.001_0",
            "primitives" : [
                {
                    "attributes" : {
                        "COLOR_0" : 8,
                        "NORMAL" : 6,
                        "POSITION" : 5,
                        "TEXCOORD_0" : 7
                    },
                    "indices" : 9,
                    "material" : 1
                }
            ]
        },
        {
            "name" : "Plane.005_0",
            "primitives" : [
                {
                    "attributes" : {
                        "NORMAL" : 11,
                        "POSITION" : 10,
                        "TEXCOORD_0" : 12,
                        "TEXCOORD_1" : 13
                    },
                    "indices" : 14,
                    "material" : 2
                }
            ]
        }
    ],
    "nodes" : [
        {
            "mesh" : 0,
            "name" : "Plane.000_0"
        },
        {
            "children" : [
                0
            ],
            "name" : "Plane.000",
            "rotation" : [
                0,
                -0.9999454021453857,
                0,
                0.010457190684974194
            ],
            "scale" : [
                0.3958466649055481,
                0.5793300271034241,
                0.5793266892433167
            ],
            "translation" : [
                -0.012230000458657742,
                0.11343999952077866,
                0.24627000093460083
            ]
        },
        {
            "mesh" : 1,
            "name" : "Plane.001_0"
        },
        {
            "children" : [
                2
            ],
            "name" : "Plane.001",
            "rotation" : [
                0,
                -0.9999454021453857,
                0,
                0.010457190684974194
            ],
            "scale" : [
                0.3958466649055481,
                0.5793300271034241,
                0.5793266892433167
            ],
            "translation" : [
                -0.012230000458657742,
                0.11343999952077866,
                0.24627000093460083
            ]
        },
        {
            "mesh" : 2,
            "name" : "Plane.005_0"
        },
        {
            "children" : [
                4
            ],
            "name" : "Plane.005",
            "rotation" : [
                -0.038890138268470764,
                0,
                0,
                0.9992434978485107
            ],
            "scale" : [
                1.3368500471115112,
                0.889769971370697,
                0.5930899977684021
            ],
            "translation" : [
                0.32315999269485474,
                13.578900337219238,
                -1.4282300472259521
            ]
        },
        {
            "name" : "Sun.001",
            "translation" : [
                0,
                3.814697265625e-06,
                0
            ]
        },
        {
            "children" : [
                6
            ],
            "name" : "Sun",
            "rotation" : [
                0.5961401462554932,
                -0.12057425081729889,
                0.02472306415438652,
                0.7933900356292725
            ],
            "scale" : [
                1,
                1,
                1.0000056028366089
            ],
            "translation" : [
                -37.187530517578125,
                9.467670440673828,
                31.585039138793945
            ]
        },
        {
            "children" : [
                1,
                3,
                5,
                7
            ],
            "name" : "Root"
        },
        {
            "children" : [
                8
            ],
            "name" : "RootNode (model correction matrix)"
        },
        {
            "children" : [
                9
            ],
            "name" : "RootNode (gltf orientation matrix)",
            "rotation" : [
                -0.7071068286895752,
                0,
                0,
                0.7071067094802856
            ]
        },
        {
            "children" : [
                10
            ],
            "name" : "Yup2Zup",
            "rotation" : [
                0.7071068286895752,
                0,
                0,
                0.7071067094802856
            ]
        }
    ],
    "scene" : 0,
    "scenes" : [
        {
            "name" : "Scene",
            "nodes" : [
                11
            ]
        }
    ],
    "textures" : [
        {
            "source" : 0
        },
        {
            "source" : 1
        },
        {
            "source" : 2
        }
    ]
}
